! vnadump generated file
# Hz S RI R 50.0
!freq S11_re S11_im S21_re S21_im S12_re S12_im S22_re S22_im
2000000000.000000	0.960872	0.492638	0.000059	-0.000021	0.0 0.0 0.0 0.0
2005000000.000000	0.911782	0.575838	0.000073	0.000072	0.0 0.0 0.0 0.0
2010000000.000000	0.852312	0.667189	-0.000001	0.000048	0.0 0.0 0.0 0.0
2015000000.000000	0.788739	0.744178	0.000047	0.000014	0.0 0.0 0.0 0.0
2020000000.000000	0.714574	0.815423	-0.000042	0.000057	0.0 0.0 0.0 0.0
2025000000.000000	0.635799	0.879388	-0.000006	-0.000001	0.0 0.0 0.0 0.0
2030000000.000000	0.551124	0.936740	-0.000029	0.000016	0.0 0.0 0.0 0.0
2035000000.000000	0.455671	0.987046	0.000007	0.000066	0.0 0.0 0.0 0.0
2040000000.000000	0.363505	1.026590	-0.000035	-0.000007	0.0 0.0 0.0 0.0
2045000000.000000	0.259653	1.056430	0.000053	0.000015	0.0 0.0 0.0 0.0
2050000000.000000	0.161485	1.079016	0.000016	-0.000017	0.0 0.0 0.0 0.0
2055000000.000000	0.059103	1.085172	-0.000016	0.000032	0.0 0.0 0.0 0.0
2060000000.000000	-0.053222	1.087550	0.000034	-0.000012	0.0 0.0 0.0 0.0
2065000000.000000	-0.154614	1.076205	-0.000038	0.000008	0.0 0.0 0.0 0.0
2070000000.000000	-0.263561	1.059713	0.000018	0.000038	0.0 0.0 0.0 0.0
2075000000.000000	-0.358179	1.029075	0.000030	0.000015	0.0 0.0 0.0 0.0
2080000000.000000	-0.456003	0.982626	0.000025	0.000005	0.0 0.0 0.0 0.0
2085000000.000000	-0.547721	0.940681	-0.000006	-0.000008	0.0 0.0 0.0 0.0
2090000000.000000	-0.644683	0.882626	-0.000019	-0.000010	0.0 0.0 0.0 0.0
2095000000.000000	-0.728397	0.814646	0.000031	0.000008	0.0 0.0 0.0 0.0
2100000000.000000	-0.807592	0.749166	-0.000010	0.000039	0.0 0.0 0.0 0.0
2105000000.000000	-0.872281	0.660248	0.000001	-0.000021	0.0 0.0 0.0 0.0
2110000000.000000	-0.937545	0.564008	0.000034	0.000044	0.0 0.0 0.0 0.0
2115000000.000000	-0.985056	0.473381	0.000045	0.000015	0.0 0.0 0.0 0.0
2120000000.000000	-1.028481	0.370152	-0.000014	0.000011	0.0 0.0 0.0 0.0
2125000000.000000	-1.061286	0.268735	0.000040	0.000010	0.0 0.0 0.0 0.0
2130000000.000000	-1.081675	0.166782	0.000010	0.000002	0.0 0.0 0.0 0.0
2135000000.000000	-1.093753	0.053068	-0.000030	-0.000026	0.0 0.0 0.0 0.0
2140000000.000000	-1.093973	-0.052030	-0.000043	0.000005	0.0 0.0 0.0 0.0
2145000000.000000	-1.084677	-0.161204	-0.000047	0.000022	0.0 0.0 0.0 0.0
2150000000.000000	-1.062053	-0.270876	0.000051	0.000013	0.0 0.0 0.0 0.0
2155000000.000000	-1.028763	-0.376109	0.000010	0.000015	0.0 0.0 0.0 0.0
2160000000.000000	-0.985729	-0.478876	-0.000032	-0.000022	0.0 0.0 0.0 0.0
2165000000.000000	-0.938229	-0.564992	-0.000014	0.000022	0.0 0.0 0.0 0.0
2170000000.000000	-0.874369	-0.659256	-0.000051	-0.000007	0.0 0.0 0.0 0.0
2175000000.000000	-0.808977	-0.739194	-0.000001	0.000017	0.0 0.0 0.0 0.0
2180000000.000000	-0.733793	-0.812439	0.000017	0.000017	0.0 0.0 0.0 0.0
2185000000.000000	-0.650138	-0.879625	0.000006	0.000003	0.0 0.0 0.0 0.0
2190000000.000000	-0.564577	-0.937679	-0.000019	0.000018	0.0 0.0 0.0 0.0
2195000000.000000	-0.466041	-0.990797	-0.000063	-0.000016	0.0 0.0 0.0 0.0
2200000000.000000	-0.369652	-1.026338	0.000056	-0.000020	0.0 0.0 0.0 0.0
2205000000.000000	-0.269203	-1.058916	0.000013	0.000002	0.0 0.0 0.0 0.0
2210000000.000000	-0.165265	-1.077194	0.000011	-0.000038	0.0 0.0 0.0 0.0
2215000000.000000	-0.062935	-1.087274	0.000014	0.000036	0.0 0.0 0.0 0.0
2220000000.000000	0.040994	-1.090705	-0.000011	0.000016	0.0 0.0 0.0 0.0
2225000000.000000	0.142679	-1.079625	0.000024	0.000036	0.0 0.0 0.0 0.0
2230000000.000000	0.244318	-1.063220	0.000006	0.000018	0.0 0.0 0.0 0.0
2235000000.000000	0.337451	-1.034860	0.000013	0.000009	0.0 0.0 0.0 0.0
2240000000.000000	0.435250	-0.997084	0.000014	0.000059	0.0 0.0 0.0 0.0
2245000000.000000	0.528916	-0.955231	-0.000001	0.000035	0.0 0.0 0.0 0.0
2250000000.000000	0.610887	-0.897098	0.000041	-0.000033	0.0 0.0 0.0 0.0
2255000000.000000	0.689385	-0.835272	-0.000005	0.000001	0.0 0.0 0.0 0.0
2260000000.000000	0.765279	-0.767276	-0.000019	0.000002	0.0 0.0 0.0 0.0
2265000000.000000	0.830494	-0.699028	0.000022	0.000026	0.0 0.0 0.0 0.0
2270000000.000000	0.892391	-0.613404	-0.000032	0.000058	0.0 0.0 0.0 0.0
2275000000.000000	0.947181	-0.528044	-0.000030	-0.000018	0.0 0.0 0.0 0.0
2280000000.000000	0.988861	-0.435827	0.000010	-0.000031	0.0 0.0 0.0 0.0
2285000000.000000	1.025775	-0.349482	0.000024	0.000060	0.0 0.0 0.0 0.0
2290000000.000000	1.053968	-0.258221	0.000054	-0.000059	0.0 0.0 0.0 0.0
2295000000.000000	1.074554	-0.155386	-0.000037	-0.000010	0.0 0.0 0.0 0.0
2300000000.000000	1.085077	-0.056893	-0.000042	-0.000006	0.0 0.0 0.0 0.0
2305000000.000000	1.086759	0.039923	0.000032	0.000008	0.0 0.0 0.0 0.0
2310000000.000000	1.080647	0.139158	-0.000047	-0.000038	0.0 0.0 0.0 0.0
2315000000.000000	1.066038	0.230132	-0.000026	-0.000041	0.0 0.0 0.0 0.0
2320000000.000000	1.040041	0.333374	-0.000005	0.000012	0.0 0.0 0.0 0.0
2325000000.000000	1.007070	0.427802	0.000006	0.000055	0.0 0.0 0.0 0.0
2330000000.000000	0.963144	0.520957	0.000024	-0.000019	0.0 0.0 0.0 0.0
2335000000.000000	0.915182	0.603437	0.000063	0.000004	0.0 0.0 0.0 0.0
2340000000.000000	0.854826	0.687483	-0.000049	0.000005	0.0 0.0 0.0 0.0
2345000000.000000	0.785237	0.770687	-0.000020	0.000046	0.0 0.0 0.0 0.0
2350000000.000000	0.709895	0.834728	0.000011	-0.000026	0.0 0.0 0.0 0.0
2355000000.000000	0.627977	0.904963	-0.000025	-0.000040	0.0 0.0 0.0 0.0
2360000000.000000	0.539975	0.960224	-0.000010	-0.000001	0.0 0.0 0.0 0.0
2365000000.000000	0.449611	1.007591	0.000021	-0.000022	0.0 0.0 0.0 0.0
2370000000.000000	0.345454	1.049391	0.000006	-0.000007	0.0 0.0 0.0 0.0
2375000000.000000	0.249791	1.077665	0.000023	0.000015	0.0 0.0 0.0 0.0
2380000000.000000	0.139523	1.095510	-0.000014	0.000015	0.0 0.0 0.0 0.0
2385000000.000000	0.031749	1.102409	-0.000005	0.000010	0.0 0.0 0.0 0.0
2390000000.000000	-0.066888	1.103483	0.000086	0.000038	0.0 0.0 0.0 0.0
2395000000.000000	-0.174426	1.094698	-0.000006	0.000002	0.0 0.0 0.0 0.0
2400000000.000000	-0.273558	1.075063	-0.000011	0.000033	0.0 0.0 0.0 0.0
2405000000.000000	-0.383700	1.038685	0.000017	-0.000059	0.0 0.0 0.0 0.0
2410000000.000000	-0.482174	0.994287	0.000027	0.000004	0.0 0.0 0.0 0.0
2415000000.000000	-0.574071	0.944883	-0.000056	-0.000030	0.0 0.0 0.0 0.0
2420000000.000000	-0.668210	0.879385	0.000016	-0.000009	0.0 0.0 0.0 0.0
2425000000.000000	-0.747465	0.814512	0.000059	-0.000001	0.0 0.0 0.0 0.0
2430000000.000000	-0.822785	0.736333	0.000056	-0.000022	0.0 0.0 0.0 0.0
2435000000.000000	-0.896915	0.648009	-0.000011	-0.000012	0.0 0.0 0.0 0.0
2440000000.000000	-0.953016	0.561599	-0.000005	-0.000001	0.0 0.0 0.0 0.0
2445000000.000000	-1.006271	0.457611	0.000010	0.000021	0.0 0.0 0.0 0.0
2450000000.000000	-1.047302	0.355351	0.000026	-0.000011	0.0 0.0 0.0 0.0
2455000000.000000	-1.075758	0.256205	-0.000001	0.000051	0.0 0.0 0.0 0.0
2460000000.000000	-1.099014	0.149028	0.000013	0.000038	0.0 0.0 0.0 0.0
2465000000.000000	-1.105774	0.044231	0.000018	0.000021	0.0 0.0 0.0 0.0
2470000000.000000	-1.106295	-0.075962	0.000018	-0.000017	0.0 0.0 0.0 0.0
2475000000.000000	-1.095020	-0.175367	-0.000005	-0.000059	0.0 0.0 0.0 0.0
2480000000.000000	-1.072748	-0.287968	0.000012	-0.000033	0.0 0.0 0.0 0.0
2485000000.000000	-1.038863	-0.396357	0.000011	-0.000058	0.0 0.0 0.0 0.0
2490000000.000000	-1.000693	-0.483540	-0.000005	0.000003	0.0 0.0 0.0 0.0
2495000000.000000	-0.944961	-0.589326	-0.000027	-0.000001	0.0 0.0 0.0 0.0
2500000000.000000	-0.881147	-0.678379	-0.000053	-0.000018	0.0 0.0 0.0 0.0
2505000000.000000	-0.804804	-0.765608	-0.000008	0.000024	0.0 0.0 0.0 0.0
2510000000.000000	-0.730709	-0.839993	0.000042	-0.000012	0.0 0.0 0.0 0.0
2515000000.000000	-0.645046	-0.907000	0.000017	0.000013	0.0 0.0 0.0 0.0
2520000000.000000	-0.555276	-0.966773	0.000002	-0.000021	0.0 0.0 0.0 0.0
2525000000.000000	-0.454571	-1.014886	-0.000040	-0.000026	0.0 0.0 0.0 0.0
2530000000.000000	-0.346139	-1.059557	0.000057	0.000041	0.0 0.0 0.0 0.0
2535000000.000000	-0.248493	-1.078397	-0.000006	-0.000011	0.0 0.0 0.0 0.0
2540000000.000000	-0.147492	-1.094891	0.000006	0.000069	0.0 0.0 0.0 0.0
2545000000.000000	-0.038317	-1.106837	-0.000005	0.000001	0.0 0.0 0.0 0.0
2550000000.000000	0.067907	-1.099240	0.000008	-0.000008	0.0 0.0 0.0 0.0
2555000000.000000	0.175935	-1.083584	0.000042	-0.000032	0.0 0.0 0.0 0.0
2560000000.000000	0.275803	-1.069374	0.000004	-0.000000	0.0 0.0 0.0 0.0
2565000000.000000	0.367886	-1.032835	0.000022	-0.000094	0.0 0.0 0.0 0.0
2570000000.000000	0.465282	-0.992122	-0.000001	-0.000007	0.0 0.0 0.0 0.0
2575000000.000000	0.552022	-0.940013	0.000038	0.000025	0.0 0.0 0.0 0.0
2580000000.000000	0.637361	-0.880865	0.000002	-0.000007	0.0 0.0 0.0 0.0
2585000000.000000	0.717554	-0.820916	-0.000036	0.000010	0.0 0.0 0.0 0.0
2590000000.000000	0.793392	-0.745202	0.000037	-0.000007	0.0 0.0 0.0 0.0
2595000000.000000	0.855190	-0.676954	0.000014	-0.000049	0.0 0.0 0.0 0.0
2600000000.000000	0.906253	-0.603034	0.000022	-0.000042	0.0 0.0 0.0 0.0
2605000000.000000	0.962832	-0.511778	0.000018	0.000012	0.0 0.0 0.0 0.0
2610000000.000000	1.006539	-0.425219	-0.000010	-0.000026	0.0 0.0 0.0 0.0
2615000000.000000	1.043565	-0.328708	0.000050	0.000043	0.0 0.0 0.0 0.0
2620000000.000000	1.067559	-0.240944	0.000024	0.000001	0.0 0.0 0.0 0.0
2625000000.000000	1.082929	-0.148533	0.000021	0.000027	0.0 0.0 0.0 0.0
2630000000.000000	1.096900	-0.040610	0.000017	-0.000009	0.0 0.0 0.0 0.0
2635000000.000000	1.095184	0.063052	0.000007	0.000037	0.0 0.0 0.0 0.0
2640000000.000000	1.087559	0.155510	0.000022	0.000032	0.0 0.0 0.0 0.0
2645000000.000000	1.070635	0.253795	0.000019	0.000064	0.0 0.0 0.0 0.0
2650000000.000000	1.049701	0.348112	-0.000005	-0.000028	0.0 0.0 0.0 0.0
2655000000.000000	1.009684	0.451828	-0.000003	-0.000034	0.0 0.0 0.0 0.0
2660000000.000000	0.967073	0.539699	0.000053	-0.000024	0.0 0.0 0.0 0.0
2665000000.000000	0.897777	0.638546	0.000055	-0.000074	0.0 0.0 0.0 0.0
2670000000.000000	0.848896	0.712223	-0.000020	-0.000035	0.0 0.0 0.0 0.0
2675000000.000000	0.782693	0.786703	0.000035	0.000019	0.0 0.0 0.0 0.0
2680000000.000000	0.695471	0.871398	0.000008	-0.000017	0.0 0.0 0.0 0.0
2685000000.000000	0.621822	0.920109	-0.000010	-0.000056	0.0 0.0 0.0 0.0
2690000000.000000	0.523270	0.979051	-0.000010	0.000001	0.0 0.0 0.0 0.0
2695000000.000000	0.432030	1.023592	0.000008	0.000004	0.0 0.0 0.0 0.0
2700000000.000000	0.332243	1.054462	-0.000005	-0.000034	0.0 0.0 0.0 0.0
2705000000.000000	0.224566	1.087053	-0.000028	-0.000034	0.0 0.0 0.0 0.0
2710000000.000000	0.134221	1.096205	-0.000014	-0.000020	0.0 0.0 0.0 0.0
2715000000.000000	0.012322	1.105995	-0.000012	-0.000035	0.0 0.0 0.0 0.0
2720000000.000000	-0.096881	1.101901	-0.000011	0.000014	0.0 0.0 0.0 0.0
2725000000.000000	-0.197214	1.077818	0.000005	-0.000010	0.0 0.0 0.0 0.0
2730000000.000000	-0.308651	1.060825	-0.000025	0.000008	0.0 0.0 0.0 0.0
2735000000.000000	-0.406085	1.026616	-0.000011	-0.000051	0.0 0.0 0.0 0.0
2740000000.000000	-0.503705	0.991804	0.000010	-0.000068	0.0 0.0 0.0 0.0
2745000000.000000	-0.604549	0.928717	0.000040	0.000024	0.0 0.0 0.0 0.0
2750000000.000000	-0.682645	0.866510	-0.000034	-0.000026	0.0 0.0 0.0 0.0
2755000000.000000	-0.774117	0.787829	-0.000001	-0.000053	0.0 0.0 0.0 0.0
2760000000.000000	-0.848629	0.715665	0.000003	-0.000040	0.0 0.0 0.0 0.0
2765000000.000000	-0.911574	0.632588	0.000020	-0.000001	0.0 0.0 0.0 0.0
2770000000.000000	-0.968787	0.528761	-0.000015	0.000018	0.0 0.0 0.0 0.0
2775000000.000000	-1.017601	0.447952	0.000010	-0.000007	0.0 0.0 0.0 0.0
2780000000.000000	-1.058781	0.332643	-0.000000	0.000064	0.0 0.0 0.0 0.0
2785000000.000000	-1.089909	0.221913	0.000046	-0.000025	0.0 0.0 0.0 0.0
2790000000.000000	-1.103930	0.121440	0.000080	-0.000004	0.0 0.0 0.0 0.0
2795000000.000000	-1.116260	0.000062	-0.000029	0.000072	0.0 0.0 0.0 0.0
2800000000.000000	-1.108521	-0.109151	0.000010	-0.000052	0.0 0.0 0.0 0.0
2805000000.000000	-1.098777	-0.220657	0.000005	0.000022	0.0 0.0 0.0 0.0
2810000000.000000	-1.068357	-0.319369	0.000042	-0.000007	0.0 0.0 0.0 0.0
2815000000.000000	-1.026614	-0.437153	0.000004	0.000000	0.0 0.0 0.0 0.0
2820000000.000000	-0.982728	-0.522500	-0.000006	0.000051	0.0 0.0 0.0 0.0
2825000000.000000	-0.926344	-0.622312	0.000009	-0.000006	0.0 0.0 0.0 0.0
2830000000.000000	-0.850055	-0.713825	0.000028	-0.000006	0.0 0.0 0.0 0.0
2835000000.000000	-0.774379	-0.806504	-0.000050	-0.000022	0.0 0.0 0.0 0.0
2840000000.000000	-0.696874	-0.869401	0.000020	-0.000029	0.0 0.0 0.0 0.0
2845000000.000000	-0.591907	-0.935583	-0.000024	0.000015	0.0 0.0 0.0 0.0
2850000000.000000	-0.513770	-0.973878	0.000010	-0.000021	0.0 0.0 0.0 0.0
2855000000.000000	-0.405236	-1.031551	0.000013	0.000034	0.0 0.0 0.0 0.0
2860000000.000000	-0.305261	-1.061018	-0.000013	-0.000037	0.0 0.0 0.0 0.0
2865000000.000000	-0.198257	-1.076226	-0.000003	-0.000057	0.0 0.0 0.0 0.0
2870000000.000000	-0.098828	-1.099216	-0.000042	0.000018	0.0 0.0 0.0 0.0
2875000000.000000	-0.010499	-1.093197	-0.000028	-0.000009	0.0 0.0 0.0 0.0
2880000000.000000	0.114196	-1.102937	0.000028	0.000036	0.0 0.0 0.0 0.0
2885000000.000000	0.211754	-1.074494	0.000082	0.000002	0.0 0.0 0.0 0.0
2890000000.000000	0.319105	-1.048915	0.000073	-0.000023	0.0 0.0 0.0 0.0
2895000000.000000	0.406366	-1.017661	0.000037	-0.000003	0.0 0.0 0.0 0.0
2900000000.000000	0.488251	-0.975278	0.000023	-0.000014	0.0 0.0 0.0 0.0
2905000000.000000	0.585682	-0.928838	-0.000011	-0.000007	0.0 0.0 0.0 0.0
2910000000.000000	0.656862	-0.871825	0.000095	0.000053	0.0 0.0 0.0 0.0
2915000000.000000	0.745390	-0.804814	0.000029	0.000060	0.0 0.0 0.0 0.0
2920000000.000000	0.820767	-0.728750	0.000055	-0.000053	0.0 0.0 0.0 0.0
2925000000.000000	0.865390	-0.663341	-0.000039	0.000001	0.0 0.0 0.0 0.0
2930000000.000000	0.940015	-0.569352	0.000030	-0.000058	0.0 0.0 0.0 0.0
2935000000.000000	0.984162	-0.491673	-0.000007	0.000034	0.0 0.0 0.0 0.0
2940000000.000000	1.019463	-0.405364	0.000011	-0.000019	0.0 0.0 0.0 0.0
2945000000.000000	1.053575	-0.319301	-0.000040	-0.000036	0.0 0.0 0.0 0.0
2950000000.000000	1.076817	-0.218405	-0.000022	0.000045	0.0 0.0 0.0 0.0
2955000000.000000	1.094644	-0.113183	0.000107	-0.000013	0.0 0.0 0.0 0.0
2960000000.000000	1.101249	-0.018899	-0.000035	-0.000013	0.0 0.0 0.0 0.0
2965000000.000000	1.104109	0.102142	-0.000022	-0.000031	0.0 0.0 0.0 0.0
2970000000.000000	1.090962	0.185731	-0.000046	0.000007	0.0 0.0 0.0 0.0
2975000000.000000	1.069816	0.266598	-0.000016	0.000030	0.0 0.0 0.0 0.0
2980000000.000000	1.036993	0.375317	0.000019	-0.000004	0.0 0.0 0.0 0.0
2985000000.000000	0.997766	0.467448	-0.000019	-0.000048	0.0 0.0 0.0 0.0
2990000000.000000	0.952138	0.565238	-0.000035	-0.000002	0.0 0.0 0.0 0.0
2995000000.000000	0.903409	0.649662	-0.000005	-0.000022	0.0 0.0 0.0 0.0
3000000000.000000	0.841750	0.716552	0.000043	-0.000051	0.0 0.0 0.0 0.0
